<svg width="96" height="112" viewBox="0 0 96 112" fill="none" xmlns="http://www.w3.org/2000/svg">
  <g id="State=Brandmark, Color=False, White=False">
    <g id="Brandmark">
      <path id="Subtract" fill-rule="evenodd" clip-rule="evenodd" d="M0 111.432V51.1413H21.5596C21.5596 51.1413 21.6324 54.2162 21.6324 92.4649H40.4432C45.773 92.4649 50.4757 91.5243 54.5514 89.6432C58.7315 87.7622 62.1802 85.2018 64.8973 81.9622C67.7189 78.618 69.8613 74.6991 71.3243 70.2054C72.7874 65.7117 73.5189 60.8523 73.5189 55.627C73.5189 50.2973 72.7874 45.3856 71.3243 40.8919C69.8613 36.3982 67.7189 32.5315 64.8973 29.2919C62.0757 26.0523 58.5748 23.5441 54.3946 21.7676C50.3189 19.991 45.6685 19.1027 40.4432 19.1027H21.6324L21.5939 36.0685H0V0.135132H40.4432C49.5351 0.135132 57.4775 1.59819 64.2703 4.52432C71.1676 7.45045 76.9153 11.4216 81.5135 16.4378C86.1117 21.4541 89.5604 27.3586 91.8595 34.1514C94.1586 40.8396 95.3081 47.9982 95.3081 55.627C95.3081 64.0919 94.0018 71.773 91.3892 78.6703C88.8811 85.4631 85.2234 91.3153 80.4162 96.227C75.609 101.034 69.809 104.796 63.0162 107.514C56.3279 110.126 48.8036 111.432 40.4432 111.432H0Z" fill="#243D51"/>
      <path id="Rectangle 4" d="M21.5596 51.1412 H36.6323 V66.214 H15 L21.5596,51.1412 Z" fill="#243D51" />
      <rect id="Rectangle 3" x="51.7051" y="81.2867" width="15.0728" height="15.0728" fill="#243D51"/>
      <rect id="Rectangle 2" x="36.6323" y="66.214" width="15.0728" height="15.0728" fill="#243D51"/>
      <rect id="Rectangle 1" x="36.6323" y="36.0685" width="15.0728" height="15.0728" fill="#243D51"/>
    </g>
  </g>
</svg>